FYP_Report/Chapter 4/ip-cores-communication_controller_i2c_slave/sim/wave.vcd
$date
	Wed Mar 19 03:29:35 2025
$end
$version
	Icarus Verilog
$end
$timescale
	1ps
$end
$scope module testHarness $end
$var wire 8 ! data_lb [7:0] $end
$var wire 8 " data_lb_recv [7:0] $end
$var wire 8 # data_ub [7:0] $end
$var wire 8 $ data_ub_recv [7:0] $end
$var wire 1 % scl $end
$var wire 1 & scl_pad_i $end
$var wire 1 ' scl_pad_o $end
$var wire 1 ( sda $end
$var wire 1 ) sda_pad_i $end
$var wire 1 * sda_pad_o $end
$var wire 1 + write_en $end
$var wire 1 , we $end
$var wire 1 - ub_en $end
$var wire 1 . stb $end
$var wire 1 / sda_padoen_o $end
$var wire 1 0 scl_padoen_o $end
$var wire 8 1 rws [7:0] $end
$var wire 1 2 read_en $end
$var wire 8 3 masterDout [7:0] $end
$var wire 8 4 masterDin [7:0] $end
$var wire 1 5 lb_en $end
$var wire 1 6 cyc $end
$var wire 1 7 chip_en $end
$var wire 3 8 adr [2:0] $end
$var wire 8 9 addr_7to0 [7:0] $end
$var wire 8 : addr_20to16 [7:0] $end
$var wire 8 ; addr_15to8 [7:0] $end
$var wire 1 < ack $end
$var reg 1 = clk $end
$var reg 8 > data_lb_drive [7:0] $end
$var reg 8 ? data_ub_drive [7:0] $end
$var reg 1 @ rst $end
$scope module u_i2cSlave $end
$var wire 1 = clk $end
$var wire 8 A data_lb [7:0] $end
$var wire 8 B data_ub [7:0] $end
$var wire 8 C myReg10 [7:0] $end
$var wire 8 D myReg11 [7:0] $end
$var wire 8 E myReg12 [7:0] $end
$var wire 8 F myReg13 [7:0] $end
$var wire 8 G myReg14 [7:0] $end
$var wire 8 H myReg15 [7:0] $end
$var wire 8 I myReg8 [7:0] $end
$var wire 8 J myReg9 [7:0] $end
$var wire 1 @ rst $end
$var wire 1 % scl $end
$var wire 1 ( sda $end
$var wire 1 K sdaIn $end
$var wire 1 + write_en $end
$var wire 1 L writeEn $end
$var wire 1 - ub_en $end
$var wire 1 M sdaOut $end
$var wire 1 N rstSyncToClk $end
$var wire 8 O regAddr [7:0] $end
$var wire 1 2 read_en $end
$var wire 8 P myReg7 [7:0] $end
$var wire 8 Q myReg6 [7:0] $end
$var wire 8 R myReg3 [7:0] $end
$var wire 8 S myReg2 [7:0] $end
$var wire 8 T myReg1 [7:0] $end
$var wire 8 U myReg0 [7:0] $end
$var wire 1 5 lb_en $end
$var wire 8 V dataToRegIF [7:0] $end
$var wire 8 W dataFromRegIF [7:0] $end
$var wire 1 X clearStartStopDet $end
$var wire 1 7 chip_en $end
$var reg 2 Y rstPipe [1:0] $end
$var reg 1 Z sclDeb $end
$var reg 5 [ sclDelayed [4:0] $end
$var reg 5 \ sclPipe [4:0] $end
$var reg 1 ] sdaDeb $end
$var reg 2 ^ sdaDelayed [1:0] $end
$var reg 5 _ sdaPipe [4:0] $end
$var reg 1 ` startEdgeDet $end
$var reg 2 a startStopDetState [1:0] $end
$scope module u_registerInterface $end
$var wire 1 = clk $end
$var wire 8 b data_lb [7:0] $end
$var wire 8 c data_ub [7:0] $end
$var wire 8 d myReg10 [7:0] $end
$var wire 8 e myReg11 [7:0] $end
$var wire 8 f myReg12 [7:0] $end
$var wire 8 g myReg13 [7:0] $end
$var wire 8 h myReg14 [7:0] $end
$var wire 8 i myReg15 [7:0] $end
$var wire 8 j myReg8 [7:0] $end
$var wire 8 k myReg9 [7:0] $end
$var wire 1 L writeEn $end
$var wire 8 l dataIn [7:0] $end
$var wire 8 m addr [7:0] $end
$var reg 1 7 chip_en $end
$var reg 8 n dataOut [7:0] $end
$var reg 1 5 lb_en $end
$var reg 8 o myReg0 [7:0] $end
$var reg 8 p myReg1 [7:0] $end
$var reg 8 q myReg2 [7:0] $end
$var reg 8 r myReg3 [7:0] $end
$var reg 8 s myReg4 [7:0] $end
$var reg 8 t myReg5 [7:0] $end
$var reg 8 u myReg6 [7:0] $end
$var reg 8 v myReg7 [7:0] $end
$var reg 3 w read_MRAM [2:0] $end
$var reg 1 2 read_en $end
$var reg 1 x reset_flag $end
$var reg 1 - ub_en $end
$var reg 3 y write_MRAM [2:0] $end
$var reg 1 + write_en $end
$upscope $end
$scope module u_serialInterface $end
$var wire 1 = clk $end
$var wire 8 z dataIn [7:0] $end
$var wire 1 { rst $end
$var wire 1 | scl $end
$var wire 1 ] sdaIn $end
$var wire 2 } startStopDetState [1:0] $end
$var reg 4 ~ CurrState_SISt [3:0] $end
$var reg 4 !" NextState_SISt [3:0] $end
$var reg 3 "" bitCnt [2:0] $end
$var reg 1 X clearStartStopDet $end
$var reg 8 #" dataOut [7:0] $end
$var reg 3 $" next_bitCnt [2:0] $end
$var reg 1 %" next_clearStartStopDet $end
$var reg 8 &" next_dataOut [7:0] $end
$var reg 8 '" next_regAddr [7:0] $end
$var reg 8 (" next_rxData [7:0] $end
$var reg 1 )" next_sdaOut $end
$var reg 2 *" next_streamSt [1:0] $end
$var reg 8 +" next_txData [7:0] $end
$var reg 1 ," next_writeEn $end
$var reg 8 -" regAddr [7:0] $end
$var reg 8 ." rxData [7:0] $end
$var reg 1 M sdaOut $end
$var reg 2 /" streamSt [1:0] $end
$var reg 8 0" txData [7:0] $end
$var reg 1 L writeEn $end
$upscope $end
$upscope $end
$scope module u_i2c_master_top $end
$var wire 1 @ arst_i $end
$var wire 1 1" rst_i $end
$var wire 1 & scl_pad_i $end
$var wire 1 ' scl_pad_o $end
$var wire 1 ) sda_pad_i $end
$var wire 1 * sda_pad_o $end
$var wire 1 = wb_clk_i $end
$var wire 1 @ wb_rst_i $end
$var wire 1 2" wb_wacc $end
$var wire 1 3" wr $end
$var wire 1 , wb_we_i $end
$var wire 1 . wb_stb_i $end
$var wire 8 4" wb_dat_i [7:0] $end
$var wire 1 6 wb_cyc_i $end
$var wire 3 5" wb_adr_i [2:0] $end
$var wire 1 6" sto $end
$var wire 1 7" sta $end
$var wire 8 8" sr [7:0] $end
$var wire 1 / sda_padoen_o $end
$var wire 1 0 scl_padoen_o $end
$var wire 8 9" rxr [7:0] $end
$var wire 1 :" rd $end
$var wire 1 ;" irxack $end
$var wire 1 <" ien $end
$var wire 1 =" iack $end
$var wire 1 >" i2c_busy $end
$var wire 1 ?" i2c_al $end
$var wire 1 @" done $end
$var wire 1 A" core_en $end
$var wire 1 B" ack $end
$var parameter 1 C" ARST_LVL $end
$var reg 1 D" al $end
$var reg 8 E" cr [7:0] $end
$var reg 8 F" ctr [7:0] $end
$var reg 1 G" irq_flag $end
$var reg 16 H" prer [15:0] $end
$var reg 1 I" rxack $end
$var reg 1 J" tip $end
$var reg 8 K" txr [7:0] $end
$var reg 1 < wb_ack_o $end
$var reg 8 L" wb_dat_o [7:0] $end
$var reg 1 M" wb_inta_o $end
$scope module byte_controller $end
$var wire 1 B" ack_in $end
$var wire 1 = clk $end
$var wire 16 N" clk_cnt [15:0] $end
$var wire 1 O" cnt_done $end
$var wire 8 P" din [7:0] $end
$var wire 8 Q" dout [7:0] $end
$var wire 1 A" ena $end
$var wire 1 R" go $end
$var wire 1 1" nReset $end
$var wire 1 :" read $end
$var wire 1 @ rst $end
$var wire 1 & scl_i $end
$var wire 1 ' scl_o $end
$var wire 1 ) sda_i $end
$var wire 1 * sda_o $end
$var wire 1 7" start $end
$var wire 1 6" stop $end
$var wire 1 3" write $end
$var wire 1 / sda_oen $end
$var wire 1 0 scl_oen $end
$var wire 1 >" i2c_busy $end
$var wire 1 ?" i2c_al $end
$var wire 1 S" core_rxd $end
$var wire 1 T" core_ack $end
$var parameter 5 U" ST_ACK $end
$var parameter 5 V" ST_IDLE $end
$var parameter 5 W" ST_READ $end
$var parameter 5 X" ST_START $end
$var parameter 5 Y" ST_STOP $end
$var parameter 5 Z" ST_WRITE $end
$var reg 1 ;" ack_out $end
$var reg 5 [" c_state [4:0] $end
$var reg 1 @" cmd_ack $end
$var reg 4 \" core_cmd [3:0] $end
$var reg 1 ]" core_txd $end
$var reg 3 ^" dcnt [2:0] $end
$var reg 1 _" ld $end
$var reg 1 `" shift $end
$var reg 8 a" sr [7:0] $end
$scope module bit_controller $end
$var wire 1 = clk $end
$var wire 16 b" clk_cnt [15:0] $end
$var wire 4 c" cmd [3:0] $end
$var wire 1 ]" din $end
$var wire 1 A" ena $end
$var wire 1 1" nReset $end
$var wire 1 @ rst $end
$var wire 1 & scl_i $end
$var wire 1 ' scl_o $end
$var wire 1 ) sda_i $end
$var wire 1 * sda_o $end
$var wire 1 d" slave_wait $end
$var parameter 17 e" idle $end
$var parameter 17 f" rd_a $end
$var parameter 17 g" rd_b $end
$var parameter 17 h" rd_c $end
$var parameter 17 i" rd_d $end
$var parameter 17 j" start_a $end
$var parameter 17 k" start_b $end
$var parameter 17 l" start_c $end
$var parameter 17 m" start_d $end
$var parameter 17 n" start_e $end
$var parameter 17 o" stop_a $end
$var parameter 17 p" stop_b $end
$var parameter 17 q" stop_c $end
$var parameter 17 r" stop_d $end
$var parameter 17 s" wr_a $end
$var parameter 17 t" wr_b $end
$var parameter 17 u" wr_c $end
$var parameter 17 v" wr_d $end
$var reg 1 ?" al $end
$var reg 1 >" busy $end
$var reg 17 w" c_state [16:0] $end
$var reg 1 x" clk_en $end
$var reg 1 T" cmd_ack $end
$var reg 1 y" cmd_stop $end
$var reg 16 z" cnt [15:0] $end
$var reg 1 {" dSCL $end
$var reg 1 |" dSDA $end
$var reg 1 S" dout $end
$var reg 1 }" dscl_oen $end
$var reg 1 ~" sSCL $end
$var reg 1 !# sSDA $end
$var reg 1 0 scl_oen $end
$var reg 1 "# sda_chk $end
$var reg 1 / sda_oen $end
$var reg 1 ## sta_condition $end
$var reg 1 $# sto_condition $end
$upscope $end
$upscope $end
$upscope $end
$scope module u_wb_master_model $end
$var wire 1 < ack $end
$var wire 1 = clk $end
$var wire 8 %# din [7:0] $end
$var wire 1 &# err $end
$var wire 1 @ rst $end
$var wire 1 '# rty $end
$var parameter 32 (# awidth $end
$var parameter 32 )# dwidth $end
$var reg 3 *# adr [2:0] $end
$var reg 1 6 cyc $end
$var reg 8 +# dout [7:0] $end
$var reg 8 ,# q [7:0] $end
$var reg 1 -# sel $end
$var reg 1 . stb $end
$var reg 1 , we $end
$scope task wb_cmp $end
$var reg 3 .# a [2:0] $end
$var reg 8 /# d_exp [7:0] $end
$var integer 32 0# delay [31:0] $end
$upscope $end
$scope task wb_read $end
$var reg 3 1# a [2:0] $end
$var reg 8 2# d [7:0] $end
$var integer 32 3# delay [31:0] $end
$upscope $end
$scope task wb_write $end
$var reg 3 4# a [2:0] $end
$var reg 8 5# d [7:0] $end
$var integer 32 6# delay [31:0] $end
$upscope $end
$upscope $end
$scope task MRAM_idle $end
$upscope $end
$scope task MRAM_in $end
$upscope $end
$scope task reset $end
$upscope $end
$upscope $end
$enddefinitions $end
$comment Show the parameter values. $end
$dumpall
b1000 )#
b11 (#
b10000000000000000 v"
b1000000000000000 u"
b100000000000000 t"
b10000000000000 s"
b100000000 r"
b10000000 q"
b1000000 p"
b100000 o"
b10000 n"
b1000 m"
b100 l"
b10 k"
b1 j"
b1000000000000 i"
b100000000000 h"
b10000000000 g"
b1000000000 f"
b0 e"
b100 Z"
b10000 Y"
b1 X"
b10 W"
b0 V"
b1000 U"
1C"
$end
#0
$dumpvars
bx 6#
bx 5#
bx 4#
bx 3#
bx 2#
bx 1#
bx 0#
bx /#
bx .#
x-#
bx ,#
bx +#
bx *#
0'#
0&#
bx %#
x$#
x##
x"#
x!#
x~"
x}"
x|"
x{"
bx z"
xy"
xx"
bx w"
xd"
bx c"
bx b"
bx a"
x`"
x_"
bx ^"
x]"
bx \"
bx ["
xT"
xS"
xR"
bx Q"
bx P"
xO"
bx N"
xM"
bx L"
bx K"
xJ"
xI"
bx H"
xG"
bx F"
bx E"
xD"
xB"
xA"
x@"
x?"
x>"
x="
x<"
x;"
x:"
bx 9"
bx000xx 8"
x7"
x6"
bx 5"
bx 4"
x3"
02"
01"
bx 0"
bx /"
bx ."
bx -"
x,"
bx +"
bx *"
x)"
bx ("
bx '"
bx &"
x%"
bx $"
bx #"
bx ""
bx !"
bx ~
bx }
x|
x{
bx z
b0 y
0x
b0 w
bx v
bx u
bx t
bx s
bx r
bx q
bx p
bx o
bx n
bx m
bx l
b110100 k
b10010 j
b11110000 i
b11011110 h
b10111100 g
b10011010 f
b1111000 e
b1010110 d
bx c
bx b
bx a
x`
bx _
bx ^
x]
bx \
bx [
xZ
bx Y
xX
bx W
bx V
bx U
bx T
bx S
bx R
bx Q
bx P
bx O
xN
xM
xL
xK
b110100 J
b10010 I
b11110000 H
b11011110 G
b10111100 F
b10011010 E
b1111000 D
b1010110 C
bx B
bx A
1@
bz ?
bz >
x=
x<
bx ;
bx :
bx 9
bx 8
17
06
15
bx 4
bx 3
12
bx 1
x0
x/
x.
1-
x,
1+
0*
x)
x(
0'
x&
x%
bx $
bx #
bx "
bx !
$end
#1000
1&
1%
0R"
0d"
1O"
0A"
0<"
07"
06"
0:"
03"
0B"
0="
1x"
b0 z"
1|"
1{"
1!#
1~"
0$#
0##
0>"
0y"
0?"
0"#
1/
10
0T"
b0 w"
b0 9"
b0 Q"
b0 a"
b0 ^"
0;"
b0 ["
0@"
0_"
0`"
0]"
b0 \"
b0 c"
b0 K"
b0 P"
b0 F"
b1111111111111111 H"
b1111111111111111 N"
b1111111111111111 b"
b0 E"
0G"
0J"
0I"
b0 8"
0D"
0M"
#10000
0=
#20000
1{
1N
b0 W
b0 n
b0 z
b11 Y
bx1 \
0`
1=
#21000
1}"
0<
#30000
0=
#40000
0%"
b0 $"
b0 &"
0,"
1)"
b0 ("
b0 +"
b0 *"
b1 !"
1)
1K
1(
1|
b0 a
b0 }
b11 ^
b11111 [
1Z
b11111 \
1]
b11111 _
b0 ""
b0 ."
b0 0"
b0 /"
0X
b0 V
b0 l
b0 #"
0L
1M
b0 ~
1=
#50000
0=
#60000
1=
#70000
0=
#80000
1=
#90000
0=
#100000
1=
#110000
0=
#120000
11"
0@
1=
#130000
0=
#140000
b10 Y
1=
#141000
b1111111111111111 z"
#150000
0=
#160000
0{
0N
b0 Y
1=
#170000
0=
#180000
b1000 !"
b1 ~
1=
#190000
0=
#200000
b1 ("
b111 !"
b1000 ~
1=
#210000
0=
#220000
b111 ~
b1 ."
1=
